<svg width="16" height="16" viewBox="0 0 16 16" fill="none" xmlns="http://www.w3.org/2000/svg">
<path d="M15.7443 4.06452L15.2202 3.53677C15.0552 3.37196 14.8358 3.28116 14.6012 3.28116C14.3668 3.28116 14.1471 3.37196 13.9822 3.53677L8.00358 9.51562L2.0181 3.53014C1.85341 3.36533 1.6337 3.27466 1.3993 3.27466C1.16489 3.27466 0.945048 3.36533 0.780234 3.53014L0.256002 4.05463C-0.085334 4.39571 -0.085334 4.95129 0.256002 5.29237L7.38243 12.4444C7.54712 12.6091 7.76657 12.7251 8.00306 12.7251H8.00579C8.24033 12.7251 8.45978 12.609 8.62446 12.4444L15.7443 5.31175C15.9092 5.14706 15.9997 4.92098 16 4.68657C16 4.45203 15.9092 4.22907 15.7443 4.06452Z" fill="#665CD0"/>
</svg>
