<svg width="157" height="119" viewBox="0 0 157 119" fill="none" xmlns="http://www.w3.org/2000/svg">
<circle cx="78.2725" cy="55.6436" r="48.6436" fill="#F5F2F0"/>
<g filter="url(#filter0_d)">
<rect x="24" y="20.6685" width="108.544" height="69.9503" rx="10" fill="white"/>
</g>
<g clip-path="url(#clip0)">
<path d="M91.5683 72.9301H64.9736C62.7704 72.9301 60.9844 71.1441 60.9844 68.9409V42.3461C60.9844 40.1429 62.7704 38.3569 64.9736 38.3569H91.5683C93.7715 38.3569 95.5575 40.1429 95.5575 42.3461V68.9409C95.5575 71.1441 93.7715 72.9301 91.5683 72.9301Z" fill="#FFDC64"/>
<path d="M95.5575 56.3084V54.9787H79.6007C79.2335 54.9787 78.9358 54.6809 78.9358 54.3138V38.3569H77.6061V54.3138C77.6061 54.681 77.3084 54.9787 76.9412 54.9787H66.9682V40.3515C66.9682 39.6241 67.166 38.9441 67.5062 38.3569H64.9736C62.7704 38.3569 60.9844 40.1429 60.9844 42.3461V68.9409C60.9844 71.1441 62.7704 72.9301 64.9736 72.9301H91.5683C93.044 72.9301 94.3294 72.1267 95.0195 70.9355H78.9358V56.9732C78.9358 56.606 79.2335 56.3084 79.6007 56.3084H95.5575ZM77.6061 70.9355H70.9574C68.7542 70.9355 66.9682 69.1495 66.9682 66.9463V56.3084H76.9412C77.3084 56.3084 77.606 56.6061 77.606 56.9732V70.9355H77.6061Z" fill="#FFC850"/>
<path d="M90.9033 47.8312H82.9249C82.4658 47.8312 82.0938 47.4591 82.0938 47.0001C82.0938 46.541 82.4658 46.1689 82.9249 46.1689H90.9033C91.3623 46.1689 91.7344 46.541 91.7344 47.0001C91.7344 47.4591 91.3623 47.8312 90.9033 47.8312Z" fill="white"/>
<path d="M73.6162 46.1689H70.4581V43.0108C70.4581 42.5518 70.086 42.1797 69.627 42.1797C69.1679 42.1797 68.7959 42.5518 68.7959 43.0108V46.1689H65.6377C65.1787 46.1689 64.8066 46.541 64.8066 47C64.8066 47.459 65.1787 47.8311 65.6377 47.8311H68.7959V50.9892C68.7959 51.4483 69.1679 51.8203 69.627 51.8203C70.086 51.8203 70.4581 51.4483 70.4581 50.9892V47.8311H73.6162C74.0752 47.8311 74.4473 47.459 74.4473 47C74.4473 46.541 74.0751 46.1689 73.6162 46.1689Z" fill="white"/>
<path d="M70.8014 64.2868L73.5381 61.55C73.8627 61.2254 73.8627 60.6995 73.5381 60.3748C73.2135 60.0502 72.6876 60.0502 72.3629 60.3748L69.6262 63.1116L66.8894 60.3748C66.5648 60.0502 66.0389 60.0502 65.7142 60.3748C65.3895 60.6994 65.3896 61.2254 65.7142 61.55L68.451 64.2868L65.7142 67.0235C65.3896 67.3481 65.3896 67.8741 65.7142 68.1988C65.8765 68.3611 66.0888 68.4422 66.3018 68.4422C66.5148 68.4422 66.7271 68.3611 66.8894 68.1988L69.6262 65.462L72.3629 68.1988C72.5253 68.3611 72.7376 68.4422 72.9505 68.4422C73.1635 68.4422 73.3758 68.3611 73.5381 68.1988C73.8627 67.8742 73.8627 67.3482 73.5381 67.0235L70.8014 64.2868Z" fill="white"/>
<path d="M91.5681 72.9298H78.9355V56.973C78.9355 56.6058 79.2333 56.3081 79.6004 56.3081H95.5573V68.9406C95.5573 71.1438 93.7713 72.9298 91.5681 72.9298Z" fill="#E4EAF8"/>
<path d="M78.9355 70.9355V72.9301H91.568C93.0438 72.9301 94.3292 72.1267 95.0192 70.9355H78.9355Z" fill="#D5DCED"/>
<path d="M90.9033 63.1231H82.9249C82.4658 63.1231 82.0938 62.7511 82.0938 62.292C82.0938 61.833 82.4658 61.4609 82.9249 61.4609H90.9033C91.3623 61.4609 91.7344 61.833 91.7344 62.292C91.7344 62.7511 91.3623 63.1231 90.9033 63.1231Z" fill="#7F8499"/>
<path d="M90.9033 67.1124H82.9249C82.4658 67.1124 82.0938 66.7403 82.0938 66.2813C82.0938 65.8223 82.4658 65.4502 82.9249 65.4502H90.9033C91.3623 65.4502 91.7344 65.8223 91.7344 66.2813C91.7344 66.7403 91.3623 67.1124 90.9033 67.1124Z" fill="#7F8499"/>
</g>
<defs>
<filter id="filter0_d" x="0" y="0.668457" width="156.544" height="117.95" filterUnits="userSpaceOnUse" color-interpolation-filters="sRGB">
<feFlood flood-opacity="0" result="BackgroundImageFix"/>
<feColorMatrix in="SourceAlpha" type="matrix" values="0 0 0 0 0 0 0 0 0 0 0 0 0 0 0 0 0 0 127 0"/>
<feOffset dy="4"/>
<feGaussianBlur stdDeviation="12"/>
<feColorMatrix type="matrix" values="0 0 0 0 0 0 0 0 0 0 0 0 0 0 0 0 0 0 0.05 0"/>
<feBlend mode="normal" in2="BackgroundImageFix" result="effect1_dropShadow"/>
<feBlend mode="normal" in="SourceGraphic" in2="effect1_dropShadow" result="shape"/>
</filter>
<clipPath id="clip0">
<rect width="34.5732" height="34.5732" fill="white" transform="translate(60.9844 38.3569)"/>
</clipPath>
</defs>
</svg>
